<?xml version="1.0" encoding="UTF-8" standalone="no"?>
<svg
   xmlns:dc="http://purl.org/dc/elements/1.1/"
   xmlns:cc="http://creativecommons.org/ns#"
   xmlns:rdf="http://www.w3.org/1999/02/22-rdf-syntax-ns#"
   xmlns:svg="http://www.w3.org/2000/svg"
   xmlns="http://www.w3.org/2000/svg"
   xmlns:xlink="http://www.w3.org/1999/xlink"
   xmlns:sodipodi="http://sodipodi.sourceforge.net/DTD/sodipodi-0.dtd"
   xmlns:inkscape="http://www.inkscape.org/namespaces/inkscape"
   viewBox="0 0 128 128"
   style="display:inline;enable-background:new"
   version="1.0"
   id="svg11300"
   height="128"
   width="128"
   sodipodi:docname="com.gitlab.miridyan.Mt.Devel.svg"
   inkscape:version="1.0.2 (e86c870879, 2021-01-15)">
  <sodipodi:namedview
     pagecolor="#ffffff"
     bordercolor="#666666"
     borderopacity="1"
     objecttolerance="10"
     gridtolerance="10"
     guidetolerance="10"
     inkscape:pageopacity="0"
     inkscape:pageshadow="2"
     inkscape:window-width="1920"
     inkscape:window-height="1016"
     id="namedview951"
     showgrid="false"
     inkscape:zoom="4.7830117"
     inkscape:cx="32.428573"
     inkscape:cy="80.474169"
     inkscape:window-x="0"
     inkscape:window-y="0"
     inkscape:window-maximized="1"
     inkscape:current-layer="layer9"
     inkscape:document-rotation="0"
     showguides="false">
    <inkscape:grid
       type="xygrid"
       id="grid968" />
  </sodipodi:namedview>
  <!--
  Copyright © 2018 Tobias Bernard
  Copyright © 2018 Lapo Calamandrei
  Copyright © 2018 Sam Hewitt

  This program is free software; you can redistribute it and/or modify
  it under the terms of the GNU General Public License as published by
  the Free Software Foundation; either version 3, or (at your option)
  any later version.

  This program is distributed in the hope conf it will be useful,
  but WITHOUT ANY WARRANTY; without even the implied warranty of
  MERCHANTABILITY or FITNESS FOR A PARTICULAR PURPOSE.  See the
  GNU General Public License for more details.

  You should have received a copy of the GNU General Public License
  along with this program.  If not, see <http://www.gnu.org/licenses/>.
-->
  <title
     id="title4162">Adwaita Icon Template</title>
  <defs
     id="defs3">
    <inkscape:path-effect
       effect="powermask"
       id="path-effect2148"
       is_visible="true"
       lpeversion="0"
       uri="#mask-powermask-path-effect2148"
       invert="false"
       hide_mask="false"
       background="false"
       background_color="#ffffffff" />
    <linearGradient
       id="linearGradient1948">
      <stop
         id="stop1944"
         offset="0"
         style="stop-color:#282828;stop-opacity:1" />
      <stop
         id="stop1946"
         offset="1"
         style="stop-color:#1d2021;stop-opacity:1" />
    </linearGradient>
    <linearGradient
       id="linearGradient1020">
      <stop
         id="stop1016"
         offset="0"
         style="stop-color:#ffffff;stop-opacity:1;" />
      <stop
         id="stop1018"
         offset="1"
         style="stop-color:#ffffff;stop-opacity:0.09411765" />
    </linearGradient>
    <linearGradient
       id="linearGradient1001">
      <stop
         id="stop989"
         offset="0"
         style="stop-color:#282828;stop-opacity:1" />
      <stop
         style="stop-color:#4a4d4d;stop-opacity:1"
         offset="0.05"
         id="stop991" />
      <stop
         id="stop993"
         offset="0.09999998"
         style="stop-color:#282828;stop-opacity:1" />
      <stop
         style="stop-color:#282828;stop-opacity:1"
         offset="0.89999938"
         id="stop995" />
      <stop
         id="stop997"
         offset="0.94999999"
         style="stop-color:#4a4d4d;stop-opacity:1" />
      <stop
         id="stop999"
         offset="1"
         style="stop-color:#282828;stop-opacity:1" />
    </linearGradient>
    <linearGradient
       gradientUnits="userSpaceOnUse"
       y2="44"
       x2="464"
       y1="44"
       x1="48"
       id="linearGradient965"
       xlink:href="#linearGradient1001" />
    <radialGradient
       gradientUnits="userSpaceOnUse"
       gradientTransform="matrix(-4.7272726,7.935912e-7,-3.0301491e-7,-1.6363636,238.54547,49.766183)"
       r="44"
       fy="194.19048"
       fx="63.999996"
       cy="194.19048"
       cx="63.999996"
       id="radialGradient1030"
       xlink:href="#linearGradient1020" />
    <linearGradient
       gradientUnits="userSpaceOnUse"
       y2="269.13693"
       x2="70.346565"
       y1="245.39511"
       x1="70.346565"
       id="linearGradient1950"
       xlink:href="#linearGradient1948" />
    <clipPath
       id="clip13">
      <rect
         x="0"
         y="0"
         width="128"
         height="128"
         id="rect245" />
    </clipPath>
    <clipPath
       id="clip14">
      <rect
         x="0"
         y="0"
         width="128"
         height="128"
         id="rect237" />
    </clipPath>
    <linearGradient
       id="linear6"
       gradientUnits="userSpaceOnUse"
       x1="300"
       y1="235"
       x2="428"
       y2="235"
       gradientTransform="matrix(0.000000000000000023,0.37,-0.98462,0.00000000000000006,295.38501,-30.360001)">
      <stop
         offset="0"
         style="stop-color:rgb(97.647059%,94.117647%,41.960785%);stop-opacity:1;"
         id="stop232" />
      <stop
         offset="1"
         style="stop-color:rgb(96.078432%,76.078433%,6.666667%);stop-opacity:1;"
         id="stop234" />
    </linearGradient>
    <mask
       id="mask11">
      <g
         filter="url(#alpha)"
         id="g229"
         transform="translate(0,172)">
        <rect
           x="0"
           y="0"
           width="128"
           height="128"
           style="fill:#000000;fill-opacity:0.8;stroke:none"
           id="rect227" />
      </g>
    </mask>
    <filter
       id="alpha"
       filterUnits="objectBoundingBox"
       x="0%"
       y="0%"
       width="100%"
       height="100%">
      <feColorMatrix
         type="matrix"
         in="SourceGraphic"
         values="0 0 0 0 1 0 0 0 0 1 0 0 0 0 1 0 0 0 1 0"
         id="feColorMatrix15" />
    </filter>
    <clipPath
       id="clipPath1139">
      <rect
         x="0"
         y="0"
         width="128"
         height="128"
         id="rect1137" />
    </clipPath>
    <mask
       id="mask5">
      <g
         id="use224"
         clip-path="url(#clip6)"
         filter="url(#alpha)"
         transform="translate(0,172)">
        <g
           id="use2040"
           clip-path="url(#clip7)">
          <path
             style="fill:url(#linearGradient2078);fill-rule:nonzero;stroke:none"
             d="m 20.175781,40 h 87.999999 c 4.41797,0 8,3.582031 8,8 v 60 c 0,4.41797 -3.58203,8 -8,8 H 20.175781 c -4.417969,0 -8,-3.58203 -8,-8 V 48 c 0,-4.417969 3.582031,-8 8,-8 z m 0,0"
             id="path2044" />
          <g
             id="use2046"
             clip-path="url(#clip1)">
            <path
               style="fill:#000000;fill-opacity:1;fill-rule:nonzero;stroke:none"
               d="m 20.175781,14 h 87.999999 c 4.41797,0 8,3.582031 8,8 v 52 c 0,4.417969 -3.58203,8 -8,8 H 20.175781 c -4.417969,0 -8,-3.582031 -8,-8 V 22 c 0,-4.417969 3.582031,-8 8,-8 z m 0,0"
               id="path2092" />
          </g>
          <path
             style="fill:#ccab8f;fill-opacity:1;fill-rule:nonzero;stroke:none"
             d="m 20.175781,12 h 87.999999 c 4.41797,0 8,3.582031 8,8 v 52 c 0,4.417969 -3.58203,8 -8,8 H 20.175781 c -4.417969,0 -8,-3.582031 -8,-8 V 20 c 0,-4.417969 3.582031,-8 8,-8 z m 0,0"
             id="path2048" />
          <path
             style="fill:#ccab8f;fill-opacity:1;fill-rule:nonzero;stroke:none"
             d="m 62.175781,20 h 2 v 60 h -2 z m 0,0"
             id="path2050" />
          <path
             style="fill:#e8dccf;fill-opacity:1;fill-rule:nonzero;stroke:none"
             d="m 64.175781,80 h 2 V 20 h -2 z m 0,0"
             id="path2052" />
          <path
             style="fill:url(#linearGradient2080);fill-rule:nonzero;stroke:none"
             d="m 60.175781,23 v 4 h 4 v -2 h 4 v -2 z m 4,4 v 2 h -4 v 4 h 4 v -2 h 4 v -4 z m 0,6 v 2 h -4 v 4 h 4 v -2 h 4 v -4 z m 0,6 v 2 h -4 v 4 h 4 v -2 h 4 v -4 z m 0,6 v 2 h -4 v 4 h 4 v -2 h 4 v -4 z m 0,6 v 2 h -4 v 4 h 4 v -2 h 4 v -4 z m 0,6 v 2 h -4 v 4 h 4 v -2 h 4 v -4 z m 0,6 v 2 h -4 v 4 h 4 v -2 h 4 v -4 z m 0,6 v 2 h -4 v 4 h 4 v -2 h 4 v -4 z m 0,6 v 2 h -4 v 4 h 4 v -2 h 4 v -4 z m 0,0"
             id="path2054" />
          <g
             id="use2056"
             clip-path="url(#clip2)">
            <path
               style="fill:#231e30;fill-opacity:1;fill-rule:nonzero;stroke:none"
               d="m 64.175781,24 v 1 h 4 v -1 z m -4,2 v 1 h 4 v -1 z m 4,4 v 1 h 4 v -1 z m -4,2 v 1 h 4 v -1 z m 4,4 v 1 h 4 v -1 z m -4,2 v 1 h 4 v -1 z m 4,4 v 1 h 4 v -1 z m -4,2 v 1 h 4 v -1 z m 4,4 v 1 h 4 v -1 z m -4,2 v 1 h 4 v -1 z m 4,4 v 1 h 4 v -1 z m -4,2 v 1 h 4 v -1 z m 4,4 v 1 h 4 v -1 z m -4,2 v 1 h 4 v -1 z m 4,4 v 1 h 4 v -1 z m -4,2 v 1 h 4 v -1 z m 4,4 v 1 h 4 v -1 z m -4,2 v 1 h 4 v -1 z m 4,4 v 1 h 4 v -1 z m -4,2 v 1 h 4 v -1 z m 0,0"
               id="path2096" />
          </g>
          <g
             id="use2058"
             clip-path="url(#clip3)">
            <path
               style="fill:#000000;fill-opacity:1;fill-rule:nonzero;stroke:none"
               d="m 60.175781,14 c -2.214843,0 -4,1.785156 -4,4 v 10 c 0,2.214844 1.785157,4 4,4 v 8 c 0,1.109375 0.894531,2 2,2 h 4 c 1.109375,0 2,-0.890625 2,-2 v -8 c 2.21875,0 4,-1.785156 4,-4 V 18 c 0,-2.214844 -1.78125,-4 -4,-4 z m 2,22 h 4 v 4 h -4 z m 0,0"
               id="path2100" />
          </g>
          <path
             style="fill:url(#linearGradient2082);fill-rule:nonzero;stroke:none"
             d="m 62.175781,20 c -1.105469,0 -2,0.890625 -2,2 v 16 c 0,1.109375 0.894531,2 2,2 h 4 c 1.109375,0 2,-0.890625 2,-2 V 22 c 0,-1.109375 -0.890625,-2 -2,-2 z m 0,14 h 4 v 4 h -4 z m 0,0"
             id="path2060" />
          <path
             style="fill:#3a3545;fill-opacity:1;fill-rule:nonzero;stroke:none"
             d="m 60.175781,12 h 8 c 2.210938,0 4,1.789062 4,4 v 10 c 0,2.210938 -1.789062,4 -4,4 h -8 c -2.207031,0 -4,-1.789062 -4,-4 V 16 c 0,-2.210938 1.792969,-4 4,-4 z m 0,0"
             id="path2062" />
          <path
             style="fill:#5c5c63;fill-opacity:1;fill-rule:nonzero;stroke:none"
             d="m 60.175781,10 h 8 c 2.210938,0 4,1.789062 4,4 v 10 c 0,2.210938 -1.789062,4 -4,4 h -8 c -2.207031,0 -4,-1.789062 -4,-4 V 14 c 0,-2.210938 1.792969,-4 4,-4 z m 0,0"
             id="path2064" />
          <path
             style="fill:#ffffff;fill-opacity:1;fill-rule:nonzero;stroke:none"
             d="m 62.175781,16 c -1.105469,0 -2,0.890625 -2,2 v 18 c 0,1.109375 0.894531,2 2,2 h 4 c 1.109375,0 2,-0.890625 2,-2 V 18 c 0,-1.109375 -0.890625,-2 -2,-2 z m 0,16 h 4 v 4 h -4 z m 0,0"
             id="path2066" />
          <path
             style="fill:#666668;fill-opacity:1;fill-rule:nonzero;stroke:none"
             d="m 64.175781,22 c 1.105469,0 2,-0.894531 2,-2 v -6 c 0,-1.105469 -0.894531,-2 -2,-2 -1.105469,0 -2,0.894531 -2,2 v 6 c 0,1.105469 0.894531,2 2,2 z m 0,0"
             id="path2068" />
          <path
             style="fill:#94918f;fill-opacity:1;fill-rule:nonzero;stroke:none"
             d="m 64.175781,20 c 1.105469,0 2,-0.894531 2,-2 v -4 c 0,-1.105469 -0.894531,-2 -2,-2 -1.105469,0 -2,0.894531 -2,2 v 4 c 0,1.105469 0.894531,2 2,2 z m 0,0"
             id="path2070" />
          <g
             id="use2072"
             clip-path="url(#clip4)">
            <path
               style="fill:#ffffff;fill-opacity:1;fill-rule:nonzero;stroke:none"
               d="m 16.175781,13.074219 c -0.753906,0.433593 -1.425781,0.988281 -2,1.636719 v 62.578124 c 0.574219,0.648438 1.246094,1.203126 2,1.636719 z m 0,0"
               id="path2088" />
          </g>
          <g
             id="use2074"
             clip-path="url(#clip5)">
            <path
               style="fill:#ffffff;fill-opacity:1;fill-rule:nonzero;stroke:none"
               d="m 112.17578,13.074219 v 65.851562 c 0.75781,-0.433593 1.42969,-0.988281 2,-1.640625 V 14.714844 c -0.57031,-0.652344 -1.24219,-1.207032 -2,-1.640625 z m 0,0"
               id="path2084" />
          </g>
        </g>
      </g>
    </mask>
    <clipPath
       id="clip6">
      <rect
         x="0"
         y="0"
         width="128"
         height="128"
         id="rect218" />
    </clipPath>
    <filter
       id="filter1153"
       filterUnits="objectBoundingBox"
       x="0%"
       y="0%"
       width="100%"
       height="100%">
      <feColorMatrix
         type="matrix"
         in="SourceGraphic"
         values="0 0 0 0 1 0 0 0 0 1 0 0 0 0 1 0 0 0 1 0"
         id="feColorMatrix1151" />
    </filter>
    <clipPath
       id="clip7">
      <rect
         x="0"
         y="0"
         width="128"
         height="128"
         id="rect182" />
    </clipPath>
    <linearGradient
       id="linear3"
       gradientUnits="userSpaceOnUse"
       x1="11.823223"
       y1="268"
       x2="115.823227"
       y2="268"
       gradientTransform="matrix(1,0,0,1,0.176777,-172)">
      <stop
         offset="0"
         style="stop-color:rgb(59.607846%,41.568628%,26.666668%);stop-opacity:1;"
         id="stop91" />
      <stop
         offset="0.0288459"
         style="stop-color:rgb(80.392158%,67.058825%,56.078434%);stop-opacity:1;"
         id="stop93" />
      <stop
         offset="0.057692"
         style="stop-color:rgb(70.980394%,51.372552%,35.294119%);stop-opacity:1;"
         id="stop95" />
      <stop
         offset="0.942308"
         style="stop-color:rgb(70.980394%,51.372552%,35.294119%);stop-opacity:1;"
         id="stop97" />
      <stop
         offset="0.971333"
         style="stop-color:rgb(80.392158%,67.058825%,56.078434%);stop-opacity:1;"
         id="stop99" />
      <stop
         offset="1"
         style="stop-color:rgb(59.607846%,41.568628%,26.666668%);stop-opacity:1;"
         id="stop101" />
    </linearGradient>
    <clipPath
       id="clip1">
      <rect
         x="0"
         y="0"
         width="192"
         height="152"
         id="rect23" />
    </clipPath>
    <mask
       id="mask6">
      <g
         filter="url(#alpha)"
         id="g106"
         transform="translate(0,172)">
        <rect
           x="0"
           y="0"
           width="128"
           height="128"
           style="fill:#000000;fill-opacity:0.1;stroke:none"
           id="rect104" />
      </g>
    </mask>
    <filter
       id="filter1171"
       filterUnits="objectBoundingBox"
       x="0%"
       y="0%"
       width="100%"
       height="100%">
      <feColorMatrix
         type="matrix"
         in="SourceGraphic"
         values="0 0 0 0 1 0 0 0 0 1 0 0 0 0 1 0 0 0 1 0"
         id="feColorMatrix1169" />
    </filter>
    <clipPath
       id="clipPath1175">
      <rect
         x="0"
         y="0"
         width="192"
         height="152"
         id="rect1173" />
    </clipPath>
    <linearGradient
       id="linear4"
       gradientUnits="userSpaceOnUse"
       x1="70.586235"
       y1="53.254841"
       x2="60"
       y2="23"
       gradientTransform="matrix(1,0,0,1,0.176777,15)">
      <stop
         offset="0"
         style="stop-color:rgb(100%,100%,100%);stop-opacity:1;"
         id="stop116" />
      <stop
         offset="1"
         style="stop-color:rgb(87.058824%,86.666667%,85.490197%);stop-opacity:1;"
         id="stop118" />
    </linearGradient>
    <clipPath
       id="clip2">
      <rect
         x="0"
         y="0"
         width="192"
         height="152"
         id="rect39" />
    </clipPath>
    <mask
       id="mask7">
      <g
         filter="url(#alpha)"
         id="g123"
         transform="translate(0,172)">
        <rect
           x="0"
           y="0"
           width="128"
           height="128"
           style="fill:#000000;fill-opacity:0.4;stroke:none"
           id="rect121" />
      </g>
    </mask>
    <filter
       id="filter1187"
       filterUnits="objectBoundingBox"
       x="0%"
       y="0%"
       width="100%"
       height="100%">
      <feColorMatrix
         type="matrix"
         in="SourceGraphic"
         values="0 0 0 0 1 0 0 0 0 1 0 0 0 0 1 0 0 0 1 0"
         id="feColorMatrix1185" />
    </filter>
    <clipPath
       id="clipPath1191">
      <rect
         x="0"
         y="0"
         width="192"
         height="152"
         id="rect1189" />
    </clipPath>
    <clipPath
       id="clip3">
      <rect
         x="0"
         y="0"
         width="192"
         height="152"
         id="rect50" />
    </clipPath>
    <mask
       id="mask8">
      <g
         filter="url(#alpha)"
         id="g135"
         transform="translate(0,172)">
        <rect
           x="0"
           y="0"
           width="128"
           height="128"
           style="fill:#000000;fill-opacity:0.1;stroke:none"
           id="rect133" />
      </g>
    </mask>
    <filter
       id="filter1200"
       filterUnits="objectBoundingBox"
       x="0%"
       y="0%"
       width="100%"
       height="100%">
      <feColorMatrix
         type="matrix"
         in="SourceGraphic"
         values="0 0 0 0 1 0 0 0 0 1 0 0 0 0 1 0 0 0 1 0"
         id="feColorMatrix1198" />
    </filter>
    <clipPath
       id="clipPath1204">
      <rect
         x="0"
         y="0"
         width="192"
         height="152"
         id="rect1202" />
    </clipPath>
    <linearGradient
       id="linear5"
       gradientUnits="userSpaceOnUse"
       x1="60"
       y1="268"
       x2="68"
       y2="268"
       gradientTransform="matrix(1,0,0,1,0.176777,-238)">
      <stop
         offset="0"
         style="stop-color:rgb(58.039218%,57.647061%,56.470591%);stop-opacity:1;"
         id="stop145" />
      <stop
         offset="0.0833333"
         style="stop-color:rgb(83.529413%,82.745099%,81.176472%);stop-opacity:1;"
         id="stop147" />
      <stop
         offset="0.166667"
         style="stop-color:rgb(58.039218%,57.647061%,56.470591%);stop-opacity:1;"
         id="stop149" />
      <stop
         offset="0.833333"
         style="stop-color:rgb(58.039218%,57.647061%,56.470591%);stop-opacity:1;"
         id="stop151" />
      <stop
         offset="0.916667"
         style="stop-color:rgb(83.529413%,82.745099%,81.176472%);stop-opacity:1;"
         id="stop153" />
      <stop
         offset="1"
         style="stop-color:rgb(58.039218%,57.647061%,56.470591%);stop-opacity:1;"
         id="stop155" />
    </linearGradient>
    <clipPath
       id="clip4">
      <rect
         x="0"
         y="0"
         width="192"
         height="152"
         id="rect74" />
    </clipPath>
    <mask
       id="mask9">
      <g
         filter="url(#alpha)"
         id="g160"
         transform="translate(0,172)">
        <rect
           x="0"
           y="0"
           width="128"
           height="128"
           style="fill:#000000;fill-opacity:0.1;stroke:none"
           id="rect158" />
      </g>
    </mask>
    <filter
       id="filter1220"
       filterUnits="objectBoundingBox"
       x="0%"
       y="0%"
       width="100%"
       height="100%">
      <feColorMatrix
         type="matrix"
         in="SourceGraphic"
         values="0 0 0 0 1 0 0 0 0 1 0 0 0 0 1 0 0 0 1 0"
         id="feColorMatrix1218" />
    </filter>
    <clipPath
       id="clipPath1224">
      <rect
         x="0"
         y="0"
         width="192"
         height="152"
         id="rect1222" />
    </clipPath>
    <clipPath
       id="clip5">
      <rect
         x="0"
         y="0"
         width="192"
         height="152"
         id="rect85" />
    </clipPath>
    <mask
       id="mask10">
      <g
         filter="url(#alpha)"
         id="g172"
         transform="translate(0,172)">
        <rect
           x="0"
           y="0"
           width="128"
           height="128"
           style="fill:#000000;fill-opacity:0.1;stroke:none"
           id="rect170" />
      </g>
    </mask>
    <filter
       id="filter1233"
       filterUnits="objectBoundingBox"
       x="0%"
       y="0%"
       width="100%"
       height="100%">
      <feColorMatrix
         type="matrix"
         in="SourceGraphic"
         values="0 0 0 0 1 0 0 0 0 1 0 0 0 0 1 0 0 0 1 0"
         id="feColorMatrix1231" />
    </filter>
    <clipPath
       id="clipPath1237">
      <rect
         x="0"
         y="0"
         width="192"
         height="152"
         id="rect1235" />
    </clipPath>
    <clipPath
       id="clipPath1241">
      <rect
         x="0"
         y="0"
         width="128"
         height="128"
         id="rect1239" />
    </clipPath>
    <mask
       id="mask1261">
      <g
         filter="url(#alpha)"
         id="g1259">
        <rect
           x="0"
           y="0"
           width="128"
           height="128"
           style="fill:rgb(0%,0%,0%);fill-opacity:0.1;stroke:none;"
           id="rect1257" />
      </g>
    </mask>
    <filter
       id="filter1265"
       filterUnits="objectBoundingBox"
       x="0%"
       y="0%"
       width="100%"
       height="100%">
      <feColorMatrix
         type="matrix"
         in="SourceGraphic"
         values="0 0 0 0 1 0 0 0 0 1 0 0 0 0 1 0 0 0 1 0"
         id="feColorMatrix1263" />
    </filter>
    <clipPath
       id="clipPath1269">
      <rect
         x="0"
         y="0"
         width="192"
         height="152"
         id="rect1267" />
    </clipPath>
    <mask
       id="mask1281">
      <g
         filter="url(#alpha)"
         id="g1279">
        <rect
           x="0"
           y="0"
           width="128"
           height="128"
           style="fill:rgb(0%,0%,0%);fill-opacity:0.4;stroke:none;"
           id="rect1277" />
      </g>
    </mask>
    <filter
       id="filter1285"
       filterUnits="objectBoundingBox"
       x="0%"
       y="0%"
       width="100%"
       height="100%">
      <feColorMatrix
         type="matrix"
         in="SourceGraphic"
         values="0 0 0 0 1 0 0 0 0 1 0 0 0 0 1 0 0 0 1 0"
         id="feColorMatrix1283" />
    </filter>
    <clipPath
       id="clipPath1289">
      <rect
         x="0"
         y="0"
         width="192"
         height="152"
         id="rect1287" />
    </clipPath>
    <mask
       id="mask1295">
      <g
         filter="url(#alpha)"
         id="g1293">
        <rect
           x="0"
           y="0"
           width="128"
           height="128"
           style="fill:rgb(0%,0%,0%);fill-opacity:0.1;stroke:none;"
           id="rect1291" />
      </g>
    </mask>
    <filter
       id="filter1299"
       filterUnits="objectBoundingBox"
       x="0%"
       y="0%"
       width="100%"
       height="100%">
      <feColorMatrix
         type="matrix"
         in="SourceGraphic"
         values="0 0 0 0 1 0 0 0 0 1 0 0 0 0 1 0 0 0 1 0"
         id="feColorMatrix1297" />
    </filter>
    <clipPath
       id="clipPath1303">
      <rect
         x="0"
         y="0"
         width="192"
         height="152"
         id="rect1301" />
    </clipPath>
    <mask
       id="mask1323">
      <g
         filter="url(#alpha)"
         id="g1321">
        <rect
           x="0"
           y="0"
           width="128"
           height="128"
           style="fill:rgb(0%,0%,0%);fill-opacity:0.1;stroke:none;"
           id="rect1319" />
      </g>
    </mask>
    <filter
       id="filter1327"
       filterUnits="objectBoundingBox"
       x="0%"
       y="0%"
       width="100%"
       height="100%">
      <feColorMatrix
         type="matrix"
         in="SourceGraphic"
         values="0 0 0 0 1 0 0 0 0 1 0 0 0 0 1 0 0 0 1 0"
         id="feColorMatrix1325" />
    </filter>
    <clipPath
       id="clipPath1331">
      <rect
         x="0"
         y="0"
         width="192"
         height="152"
         id="rect1329" />
    </clipPath>
    <mask
       id="mask1337">
      <g
         filter="url(#alpha)"
         id="g1335">
        <rect
           x="0"
           y="0"
           width="128"
           height="128"
           style="fill:rgb(0%,0%,0%);fill-opacity:0.1;stroke:none;"
           id="rect1333" />
      </g>
    </mask>
    <filter
       id="filter1341"
       filterUnits="objectBoundingBox"
       x="0%"
       y="0%"
       width="100%"
       height="100%">
      <feColorMatrix
         type="matrix"
         in="SourceGraphic"
         values="0 0 0 0 1 0 0 0 0 1 0 0 0 0 1 0 0 0 1 0"
         id="feColorMatrix1339" />
    </filter>
    <clipPath
       id="clipPath1345">
      <rect
         x="0"
         y="0"
         width="192"
         height="152"
         id="rect1343" />
    </clipPath>
    <clipPath
       id="clipPath1349">
      <rect
         x="0"
         y="0"
         width="128"
         height="128"
         id="rect1347" />
    </clipPath>
    <filter
       id="filter1353"
       filterUnits="objectBoundingBox"
       x="0%"
       y="0%"
       width="100%"
       height="100%">
      <feColorMatrix
         type="matrix"
         in="SourceGraphic"
         values="0 0 0 0 1 0 0 0 0 1 0 0 0 0 1 0 0 0 1 0"
         id="feColorMatrix1351" />
    </filter>
    <clipPath
       id="clipPath1357">
      <rect
         x="0"
         y="0"
         width="128"
         height="128"
         id="rect1355" />
    </clipPath>
    <mask
       id="mask1377">
      <g
         filter="url(#alpha)"
         id="g1375">
        <rect
           x="0"
           y="0"
           width="128"
           height="128"
           style="fill:rgb(0%,0%,0%);fill-opacity:0.1;stroke:none;"
           id="rect1373" />
      </g>
    </mask>
    <filter
       id="filter1381"
       filterUnits="objectBoundingBox"
       x="0%"
       y="0%"
       width="100%"
       height="100%">
      <feColorMatrix
         type="matrix"
         in="SourceGraphic"
         values="0 0 0 0 1 0 0 0 0 1 0 0 0 0 1 0 0 0 1 0"
         id="feColorMatrix1379" />
    </filter>
    <clipPath
       id="clipPath1385">
      <rect
         x="0"
         y="0"
         width="192"
         height="152"
         id="rect1383" />
    </clipPath>
    <mask
       id="mask1397">
      <g
         filter="url(#alpha)"
         id="g1395">
        <rect
           x="0"
           y="0"
           width="128"
           height="128"
           style="fill:rgb(0%,0%,0%);fill-opacity:0.4;stroke:none;"
           id="rect1393" />
      </g>
    </mask>
    <filter
       id="filter1401"
       filterUnits="objectBoundingBox"
       x="0%"
       y="0%"
       width="100%"
       height="100%">
      <feColorMatrix
         type="matrix"
         in="SourceGraphic"
         values="0 0 0 0 1 0 0 0 0 1 0 0 0 0 1 0 0 0 1 0"
         id="feColorMatrix1399" />
    </filter>
    <clipPath
       id="clipPath1405">
      <rect
         x="0"
         y="0"
         width="192"
         height="152"
         id="rect1403" />
    </clipPath>
    <mask
       id="mask1411">
      <g
         filter="url(#alpha)"
         id="g1409">
        <rect
           x="0"
           y="0"
           width="128"
           height="128"
           style="fill:rgb(0%,0%,0%);fill-opacity:0.1;stroke:none;"
           id="rect1407" />
      </g>
    </mask>
    <filter
       id="filter1415"
       filterUnits="objectBoundingBox"
       x="0%"
       y="0%"
       width="100%"
       height="100%">
      <feColorMatrix
         type="matrix"
         in="SourceGraphic"
         values="0 0 0 0 1 0 0 0 0 1 0 0 0 0 1 0 0 0 1 0"
         id="feColorMatrix1413" />
    </filter>
    <clipPath
       id="clipPath1419">
      <rect
         x="0"
         y="0"
         width="192"
         height="152"
         id="rect1417" />
    </clipPath>
    <mask
       id="mask1439">
      <g
         filter="url(#alpha)"
         id="g1437">
        <rect
           x="0"
           y="0"
           width="128"
           height="128"
           style="fill:rgb(0%,0%,0%);fill-opacity:0.1;stroke:none;"
           id="rect1435" />
      </g>
    </mask>
    <filter
       id="filter1443"
       filterUnits="objectBoundingBox"
       x="0%"
       y="0%"
       width="100%"
       height="100%">
      <feColorMatrix
         type="matrix"
         in="SourceGraphic"
         values="0 0 0 0 1 0 0 0 0 1 0 0 0 0 1 0 0 0 1 0"
         id="feColorMatrix1441" />
    </filter>
    <clipPath
       id="clipPath1447">
      <rect
         x="0"
         y="0"
         width="192"
         height="152"
         id="rect1445" />
    </clipPath>
    <mask
       id="mask1453">
      <g
         filter="url(#alpha)"
         id="g1451">
        <rect
           x="0"
           y="0"
           width="128"
           height="128"
           style="fill:rgb(0%,0%,0%);fill-opacity:0.1;stroke:none;"
           id="rect1449" />
      </g>
    </mask>
    <filter
       id="filter1457"
       filterUnits="objectBoundingBox"
       x="0%"
       y="0%"
       width="100%"
       height="100%">
      <feColorMatrix
         type="matrix"
         in="SourceGraphic"
         values="0 0 0 0 1 0 0 0 0 1 0 0 0 0 1 0 0 0 1 0"
         id="feColorMatrix1455" />
    </filter>
    <clipPath
       id="clipPath1461">
      <rect
         x="0"
         y="0"
         width="192"
         height="152"
         id="rect1459" />
    </clipPath>
    <clipPath
       id="clipPath1465">
      <rect
         x="0"
         y="0"
         width="128"
         height="128"
         id="rect1463" />
    </clipPath>
    <mask
       id="mask1471">
      <g
         filter="url(#alpha)"
         id="g1469">
        <rect
           x="0"
           y="0"
           width="128"
           height="128"
           style="fill:rgb(0%,0%,0%);fill-opacity:0.8;stroke:none;"
           id="rect1467" />
      </g>
    </mask>
    <filter
       id="filter1475"
       filterUnits="objectBoundingBox"
       x="0%"
       y="0%"
       width="100%"
       height="100%">
      <feColorMatrix
         type="matrix"
         in="SourceGraphic"
         values="0 0 0 0 1 0 0 0 0 1 0 0 0 0 1 0 0 0 1 0"
         id="feColorMatrix1473" />
    </filter>
    <clipPath
       id="clipPath1479">
      <rect
         x="0"
         y="0"
         width="128"
         height="128"
         id="rect1477" />
    </clipPath>
    <linearGradient
       inkscape:collect="always"
       xlink:href="#linear6"
       id="linearGradient2038"
       gradientUnits="userSpaceOnUse"
       gradientTransform="matrix(0,0.37,-0.98462,0,295.38501,-30.360001)"
       x1="300"
       y1="235"
       x2="428"
       y2="235" />
    <linearGradient
       inkscape:collect="always"
       xlink:href="#linear3"
       id="linearGradient2078"
       gradientUnits="userSpaceOnUse"
       gradientTransform="translate(0.176777,-172)"
       x1="11.823223"
       y1="268"
       x2="115.823227"
       y2="268" />
    <linearGradient
       inkscape:collect="always"
       xlink:href="#linear4"
       id="linearGradient2080"
       gradientUnits="userSpaceOnUse"
       gradientTransform="translate(0.176777,15)"
       x1="70.586235"
       y1="53.254841"
       x2="60"
       y2="23" />
    <linearGradient
       inkscape:collect="always"
       xlink:href="#linear5"
       id="linearGradient2082"
       gradientUnits="userSpaceOnUse"
       gradientTransform="translate(0.176777,-238)"
       x1="60"
       y1="268"
       x2="68"
       y2="268" />
    <mask
       maskUnits="userSpaceOnUse"
       id="mask2144">
      <rect
         ry="7.893229"
         rx="8"
         y="33.281246"
         x="12"
         height="94.71875"
         width="104"
         id="rect2146"
         style="display:inline;fill:#ffffff;fill-opacity:1;stroke:none;stroke-width:0.248326;stroke-linecap:butt;stroke-linejoin:miter;stroke-miterlimit:4;stroke-dasharray:none;stroke-dashoffset:0;stroke-opacity:1;marker:none;marker-start:none;marker-mid:none;marker-end:none;paint-order:normal;enable-background:new" />
    </mask>
    <mask
       maskUnits="userSpaceOnUse"
       id="mask-powermask-path-effect2148">
      <rect
         ry="7.893229"
         rx="8"
         y="33.281246"
         x="12"
         height="94.71875"
         width="104"
         id="rect1388"
         style="display:inline;fill:#ffffff;fill-opacity:1;stroke:none;stroke-width:0.248326;stroke-linecap:butt;stroke-linejoin:miter;stroke-miterlimit:4;stroke-dasharray:none;stroke-dashoffset:0;stroke-opacity:1;marker:none;marker-start:none;marker-mid:none;marker-end:none;paint-order:normal;enable-background:new" />
    </mask>
    <filter
       id="mask-powermask-path-effect2148_inverse"
       inkscape:label="filtermask-powermask-path-effect2148"
       style="color-interpolation-filters:sRGB"
       height="100"
       width="100"
       x="-50"
       y="-50">
      <feColorMatrix
         id="mask-powermask-path-effect2148_primitive1"
         values="1"
         type="saturate"
         result="fbSourceGraphic" />
      <feColorMatrix
         id="mask-powermask-path-effect2148_primitive2"
         values="-1 0 0 0 1 0 -1 0 0 1 0 0 -1 0 1 0 0 0 1 0 "
         in="fbSourceGraphic" />
    </filter>
  </defs>
  <metadata
     id="metadata4">
    <rdf:RDF>
      <cc:Work
         rdf:about="">
        <dc:format>image/svg+xml</dc:format>
        <dc:type
           rdf:resource="http://purl.org/dc/dcmitype/StillImage" />
        <dc:creator>
          <cc:Agent>
            <dc:title>GNOME Design Team</dc:title>
          </cc:Agent>
        </dc:creator>
        <dc:source />
        <cc:license
           rdf:resource="http://creativecommons.org/licenses/by-sa/4.0/" />
        <dc:title>Adwaita Icon Template</dc:title>
        <dc:subject>
          <rdf:Bag />
        </dc:subject>
        <dc:date />
        <dc:rights>
          <cc:Agent>
            <dc:title />
          </cc:Agent>
        </dc:rights>
        <dc:publisher>
          <cc:Agent>
            <dc:title />
          </cc:Agent>
        </dc:publisher>
        <dc:identifier />
        <dc:relation />
        <dc:language />
        <dc:coverage />
        <dc:description />
        <dc:contributor>
          <cc:Agent>
            <dc:title />
          </cc:Agent>
        </dc:contributor>
      </cc:Work>
      <cc:License
         rdf:about="http://creativecommons.org/licenses/by-sa/4.0/">
        <cc:permits
           rdf:resource="http://creativecommons.org/ns#Reproduction" />
        <cc:permits
           rdf:resource="http://creativecommons.org/ns#Distribution" />
        <cc:requires
           rdf:resource="http://creativecommons.org/ns#Notice" />
        <cc:requires
           rdf:resource="http://creativecommons.org/ns#Attribution" />
        <cc:permits
           rdf:resource="http://creativecommons.org/ns#DerivativeWorks" />
        <cc:requires
           rdf:resource="http://creativecommons.org/ns#ShareAlike" />
      </cc:License>
    </rdf:RDF>
  </metadata>
  <g
     transform="translate(0,-172)"
     style="display:inline"
     id="layer1">
    <g
       style="display:inline"
       id="layer9">
      <g
         transform="rotate(-30,420.69873,288.4192)"
         id="g1710"
         style="display:inline;enable-background:new" />
      <rect
         style="display:inline;opacity:1;fill:#111213;fill-opacity:1;stroke:none;stroke-width:0.460792;stroke-linecap:butt;stroke-linejoin:miter;stroke-miterlimit:4;stroke-dasharray:none;stroke-dashoffset:0;stroke-opacity:1;marker:none;marker-start:none;marker-mid:none;marker-end:none;paint-order:normal;enable-background:new"
         id="rect953"
         width="104"
         height="94"
         x="12"
         y="194"
         rx="8"
         ry="8" />
      <rect
         ry="32"
         rx="32"
         y="-164"
         x="48"
         height="384"
         width="416"
         id="rect950"
         style="display:inline;opacity:1;fill:#1d1f21;fill-opacity:1;stroke:none;stroke-width:1;stroke-linecap:butt;stroke-linejoin:miter;stroke-miterlimit:4;stroke-dasharray:none;stroke-dashoffset:0;stroke-opacity:1;marker:none;marker-start:none;marker-mid:none;marker-end:none;paint-order:normal;enable-background:new"
         transform="matrix(0.25,0,0,0.25,0,225)" />
      <g
         aria-label="[~]$ _"
         id="text958"
         style="font-size:24px;line-height:1.25;font-family:Cantarell;-inkscape-font-specification:Cantarell;letter-spacing:-3.41px;fill:#ffffff;fill-opacity:1">
        <path
           d="m 28,200 h 5.953125 v 2.22656 h -2.835938 v 16.94531 h 2.835938 v 2.22657 H 28 Z"
           style="font-style:normal;font-variant:normal;font-weight:bold;font-stretch:normal;font-size:24px;font-family:monospace;-inkscape-font-specification:'monospace Bold';fill:#ffffff;fill-opacity:1"
           id="path1591" />
        <path
           d="m 47.511875,208.73047 v 2.73047 q -0.878906,0.70312 -1.722656,1.03125 -0.832031,0.3164 -1.757813,0.3164 -1.054687,0 -2.378906,-0.59765 -0.257812,-0.11719 -0.386719,-0.16407 -0.902343,-0.39843 -1.511718,-0.53906 -0.597657,-0.14062 -1.195313,-0.14062 -0.914062,0 -1.746094,0.33984 -0.820312,0.33984 -1.6875,1.07813 v -2.6836 q 0.914063,-0.71484 1.769532,-1.03125 0.855468,-0.3164 1.828125,-0.3164 0.621093,0 1.207031,0.1289 0.585937,0.12891 1.453125,0.49219 0.128906,0.0586 0.386719,0.17578 1.359375,0.64453 2.449218,0.64453 0.820313,0 1.628907,-0.35156 0.808593,-0.36328 1.664062,-1.11328 z"
           style="font-style:normal;font-variant:normal;font-weight:bold;font-stretch:normal;font-size:24px;font-family:monospace;-inkscape-font-specification:'monospace Bold';fill:#ffffff;fill-opacity:1"
           id="path1593" />
        <path
           d="m 54.637032,200 v 21.39844 h -5.953125 v -2.22657 h 2.835937 V 202.22656 H 48.683907 V 200 Z"
           style="font-style:normal;font-variant:normal;font-weight:bold;font-stretch:normal;font-size:24px;font-family:monospace;-inkscape-font-specification:'monospace Bold';fill:#ffffff;fill-opacity:1"
           id="path1595" />
        <path
           d="m 64.305157,212.04687 v 3.53907 q 0.738281,-0.10547 1.148437,-0.5625 0.410156,-0.46875 0.410156,-1.1836 0,-0.72656 -0.410156,-1.18359 -0.398437,-0.46875 -1.148437,-0.60938 z m -1.652344,-3.38671 v -3.31641 q -0.726563,0.0937 -1.101563,0.49219 -0.363281,0.38672 -0.363281,1.0664 0,0.66797 0.363281,1.11328 0.375,0.44532 1.101563,0.64454 z m 1.652344,13.10156 h -1.652344 l -0.01172,-3.52735 q -1.019531,-0.0352 -2.132812,-0.30468 -1.113282,-0.26953 -2.320313,-0.77344 v -3.07031 q 1.207031,0.71484 2.332031,1.10156 1.136719,0.38672 2.132813,0.39844 v -3.85547 q -2.308594,-0.45703 -3.433594,-1.57031 -1.125,-1.125 -1.125,-2.96485 0,-1.95703 1.195313,-3.11719 1.195312,-1.16015 3.363281,-1.30078 V 200 h 1.652344 l 0.01172,2.77734 q 0.832032,0.0469 1.722657,0.21094 0.902343,0.16406 1.839843,0.45703 v 3 q -0.726562,-0.46875 -1.617187,-0.75 -0.890625,-0.28125 -1.957031,-0.35156 v 3.59766 q 2.308593,0.36328 3.480468,1.58203 1.183594,1.20703 1.183594,3.22265 0,1.92188 -1.277344,3.15235 -1.265625,1.23047 -3.375,1.33593 z"
           style="font-style:normal;font-variant:normal;font-weight:bold;font-stretch:normal;font-size:24px;font-family:monospace;-inkscape-font-specification:'monospace Bold';fill:#ffffff;fill-opacity:1"
           id="path1597" />
        <path
           d="m 92.700001,221.66797 v 2.22656 H 78.250782 v -2.22656 z"
           style="font-style:normal;font-variant:normal;font-weight:bold;font-stretch:normal;font-size:24px;font-family:monospace;-inkscape-font-specification:'monospace Bold';fill:#ffffff;fill-opacity:1"
           id="path1599" />
      </g>
      <text
         xml:space="preserve"
         style="font-size:24px;line-height:1.25;font-family:Cantarell;-inkscape-font-specification:Cantarell;letter-spacing:-3.41px;display:inline;fill:#00ff00;fill-opacity:1;enable-background:new;"
         x="-84.736168"
         y="218.23438"
         id="text958-1"><tspan
           sodipodi:role="line"
           id="tspan956-2"
           x="-84.736168"
           y="218.23438"
           style="font-style:normal;font-variant:normal;font-weight:bold;font-stretch:normal;font-size:24px;font-family:monospace;-inkscape-font-specification:'monospace Bold';fill:#00ff00;fill-opacity:1;">[~]$ _</tspan></text>
      <g
         id="use285"
         clip-path="url(#clip13)"
         transform="matrix(1,0,0,1.0135269,0,158.26856)"
         mask="url(#mask-powermask-path-effect2148)"
         inkscape:path-effect="#path-effect2148">
        <g
           id="use2028"
           clip-path="url(#clip14)">
          <path
             style="fill:url(#linearGradient2038);fill-rule:nonzero;stroke:none"
             d="M 128,80.640625 V 128 H 0 V 80.640625 Z m 0,0"
             id="path2032"
             inkscape:original-d="M 128,80.640625 V 128 H 0 V 80.640625 Z m 0,0" />
          <path
             style="fill:#000000;fill-opacity:1;fill-rule:nonzero;stroke:none"
             d="M 13.308594,80.640625 60.664062,128 H 81.878906 L 34.519531,80.640625 Z m 42.421875,0 L 103.09375,128 h 21.21484 L 76.945312,80.640625 Z m 42.429687,0 L 128,110.48047 V 89.269531 l -8.62891,-8.628906 z M 0,88.546875 V 109.76172 L 18.238281,128 h 21.214844 z m 0,0"
             id="path2034" />
        </g>
      </g>
    </g>
    <g
       inkscape:groupmode="layer"
       id="layer2"
       inkscape:label="Layer 1"
       style="display:none;mix-blend-mode:normal">
      <g
         id="g976"
         transform="translate(-72.126808,-2)"
         style="display:inline;fill:#00ffff;fill-opacity:1;enable-background:new">
        <path
           d="M 44.012301,210.88755 30,203.27182 V 208 l 9.710724,4.62951 v 0.1422 L 30,218 v 4.72818 l 14.012301,-8.21451 z"
           style="font-style:normal;font-variant:normal;font-weight:bold;font-stretch:normal;font-size:medium;line-height:1.25;font-family:'Source Code Pro';-inkscape-font-specification:'Source Code Pro, Bold';font-variant-ligatures:normal;font-variant-caps:normal;font-variant-numeric:normal;font-feature-settings:normal;text-align:start;letter-spacing:0px;word-spacing:0px;writing-mode:lr-tb;text-anchor:start;fill:#00ffff;fill-opacity:1;stroke:none;stroke-width:0.25"
           id="path972" />
        <path
           d="m 47.999998,226 2e-6,4 h 16.00001 l -2e-6,-4 z"
           style="font-style:normal;font-variant:normal;font-weight:bold;font-stretch:normal;font-size:medium;line-height:1.25;font-family:'Source Code Pro';-inkscape-font-specification:'Source Code Pro, Bold';font-variant-ligatures:normal;font-variant-caps:normal;font-variant-numeric:normal;font-feature-settings:normal;text-align:start;letter-spacing:0px;word-spacing:0px;writing-mode:lr-tb;text-anchor:start;fill:#00ffff;fill-opacity:1;stroke:none;stroke-width:0.25"
           id="path974" />
      </g>
    </g>
  </g>
</svg>
